{
  "hosting": {
    "public": "dist/flow-state-serverside/browser",
    "ignore": [
      "firebase.json",
      "**/.*",
      "**/node_modules/**",
      ".env"
    ],
    "rewrites": [
      {
        "source": "**",
        "destination": "/index.html"
      }
    ]
  }
}
